dump.vcd
$date
	Fri Sep 15 10:37:00 2023
$end
$version
	QuestaSim Version 10.6c
$end
$timescale
	1ns
$end

$scope module uvm_root $end
$upscope $end

$scope module tb $end

$scope module dut $end
$upscope $end
$upscope $end

$scope begin uvm_pkg $end
$var parameter 32 ! UVM_HDL_MAX_WIDTH $end
$var parameter 32 " UVM_STREAMBITS $end
$var parameter 32 # UVM_RADIX $end
$var parameter 32 $ UVM_MACRO_NUMFLAGS $end
$var parameter 32 % UVM_DEFAULT $end
$var parameter 32 & UVM_ALL_ON $end
$var parameter 32 ' UVM_FLAGS_ON $end
$var parameter 32 ( UVM_FLAGS_OFF $end
$var parameter 32 ) UVM_COPY $end
$var parameter 32 * UVM_NOCOPY $end
$var parameter 32 + UVM_COMPARE $end
$var parameter 32 , UVM_NOCOMPARE $end
$var parameter 32 - UVM_PRINT $end
$var parameter 32 . UVM_NOPRINT $end
$var parameter 32 / UVM_RECORD $end
$var parameter 32 0 UVM_NORECORD $end
$var parameter 32 1 UVM_PACK $end
$var parameter 32 2 UVM_NOPACK $end
$var parameter 32 3 UVM_PHYSICAL $end
$var parameter 32 4 UVM_ABSTRACT $end
$var parameter 32 5 UVM_READONLY $end
$var parameter 32 6 UVM_NODEFPRINT $end
$var parameter 32 7 UVM_MACRO_EXTRAS $end
$var parameter 32 8 UVM_FLAGS $end
$var parameter 32 9 UVM_UNPACK $end
$var parameter 32 : UVM_CHECK_FIELDS $end
$var parameter 32 ; UVM_END_DATA_EXTRA $end
$var parameter 32 < UVM_START_FUNCS $end
$var parameter 32 = UVM_SET $end
$var parameter 32 > UVM_SETINT $end
$var parameter 32 ? UVM_SETOBJ $end
$var parameter 32 @ UVM_SETSTR $end
$var parameter 32 A UVM_END_FUNCS $end
$var parameter 32 B UVM_STR_CRC_POLYNOMIAL $end
$var parameter 32 C UVM_STDOUT $end
$var parameter 32 D UVM_LINE_WIDTH $end
$var parameter 32 E UVM_NUM_LINES $end
$var parameter 32 F UVM_SMALL_STRING $end
$var parameter 32 G UVM_LARGE_STRING $end
$var reg 1 H uvm_start_uvm_declarations $end
$var integer 32 I uvm_global_random_seed $end
$var integer 32 J UVM_UNBOUNDED_CONNECTIONS $end

$scope function uvm_hdl_check_path $end
$var integer 32 K uvm_hdl_check_path $end
$upscope $end

$scope function uvm_hdl_deposit $end
$var integer 32 L uvm_hdl_deposit $end
$var reg 1024 M value [1023:0] $end
$upscope $end

$scope function uvm_hdl_force $end
$var integer 32 N uvm_hdl_force $end
$var reg 1024 O value [1023:0] $end
$upscope $end

$scope task uvm_hdl_force_time $end
$var reg 1024 P value [1023:0] $end
$var time 64 Q force_time $end
$upscope $end

$scope function uvm_hdl_release_and_read $end
$var integer 32 R uvm_hdl_release_and_read $end
$var reg 1024 S value [1023:0] $end
$upscope $end

$scope function uvm_hdl_release $end
$var integer 32 T uvm_hdl_release $end
$upscope $end

$scope function uvm_hdl_read $end
$var integer 32 U uvm_hdl_read $end
$var reg 1024 V value [1023:0] $end
$upscope $end

$scope function uvm_dpi_get_next_arg_c $end
$upscope $end

$scope function uvm_dpi_get_tool_name_c $end
$upscope $end

$scope function uvm_dpi_get_tool_version_c $end
$upscope $end

$scope function uvm_dpi_get_next_arg $end
$upscope $end

$scope function uvm_dpi_get_tool_name $end
$upscope $end

$scope function uvm_dpi_get_tool_version $end
$upscope $end

$scope function uvm_dpi_regcomp $end
$upscope $end

$scope function uvm_dpi_regexec $end
$var integer 32 W uvm_dpi_regexec $end
$upscope $end

$scope function uvm_dpi_regfree $end
$upscope $end

$scope function uvm_re_match $end
$var integer 32 X uvm_re_match $end
$upscope $end

$scope function uvm_dump_re_cache $end
$upscope $end

$scope function uvm_glob_to_re $end
$upscope $end

$scope function uvm_revision_string $end
$upscope $end

$scope function uvm_radix_to_string $end
$var integer 32 Y radix $end
$upscope $end

$scope function uvm_instance_scope $end
$var reg 8 Z c [7:0] $end
$var integer 32 [ pos $end
$upscope $end

$scope function uvm_oneway_hash $end
$var integer 32 \ uvm_oneway_hash $end
$var integer 32 ] seed $end
$var reg 1 ^ msb $end
$var reg 8 _ current_byte [7:0] $end
$var reg 32 ` crc1 [31:0] $end
$upscope $end

$scope function uvm_create_random_seed $end
$var integer 32 a uvm_create_random_seed $end
$upscope $end

$scope function uvm_object_value_str $end
$upscope $end

$scope function uvm_leaf_scope $end
$var reg 8 b scope_separator [7:0] $end
$var reg 8 c bracket_match [7:0] $end
$var integer 32 d pos $end
$var integer 32 e bmatches $end
$upscope $end

$scope function uvm_vector_to_string $end
$var reg 4096 f value [4095:0] $end
$var integer 32 g size $end
$var integer 32 h radix $end
$upscope $end

$scope function uvm_get_array_index_int $end
$var integer 32 i uvm_get_array_index_int $end
$var reg 1 j is_wildcard $end
$var integer 32 k i $end
$upscope $end

$scope function uvm_get_array_index_string $end
$var reg 1 l is_wildcard $end
$var integer 32 m i $end
$upscope $end

$scope function uvm_is_array $end
$var reg 1 n uvm_is_array $end
$upscope $end

$scope function uvm_has_wildcard $end
$upscope $end

$scope task run_test $end
$upscope $end

$scope function global_stop_request $end
$upscope $end

$scope function set_global_timeout $end
$var time 64 o timeout $end
$var reg 1 p overridable $end
$upscope $end

$scope function set_global_stop_timeout $end
$var time 64 q timeout $end
$upscope $end

$scope function uvm_report_enabled $end
$var reg 1 r uvm_report_enabled $end
$var integer 32 s verbosity $end
$var reg 2 t severity [1:0] $end
$upscope $end

$scope function uvm_report $end
$var reg 2 u severity [1:0] $end
$var integer 32 v verbosity $end
$var integer 32 w line $end
$upscope $end

$scope function uvm_report_info $end
$var integer 32 x verbosity $end
$var integer 32 y line $end
$upscope $end

$scope function uvm_report_warning $end
$var integer 32 z verbosity $end
$var integer 32 { line $end
$upscope $end

$scope function uvm_report_error $end
$var integer 32 | verbosity $end
$var integer 32 } line $end
$upscope $end

$scope function uvm_report_fatal $end
$var integer 32 ~ verbosity $end
$var integer 32 !! line $end
$upscope $end

$scope function uvm_string_to_severity $end
$var reg 1 "! uvm_string_to_severity $end
$var reg 2 #! sev [1:0] $end
$upscope $end

$scope function uvm_string_to_action $end
$upscope $end

$scope function set_config_int $end
$var reg 4096 $! value [4095:0] $end
$upscope $end

$scope function set_config_object $end
$var reg 1 %! clone $end
$upscope $end

$scope function set_config_string $end
$upscope $end

$scope function uvm_is_match $end
$var reg 1 &! uvm_is_match $end
$upscope $end

$scope function uvm_string_to_bits $end
$var reg 115200 '! uvm_string_to_bits [115199:0] $end
$upscope $end

$scope function uvm_bits_to_string $end
$var reg 115200 (! str [115199:0] $end
$upscope $end

$scope task uvm_wait_for_nba_region $end
$var integer 32 )! nba $end
$var integer 32 *! next_nba $end
$upscope $end

$scope function uvm_split_string $end
$upscope $end

$scope function uvm_hdl_concat2string $end
$upscope $end
$upscope $end

$scope begin testbench_sv_unit $end
$upscope $end

$scope begin std $end
$upscope $end

$scope begin questa_uvm_pkg $end
$upscope $end
$enddefinitions $end
#0
$dumpvars
0l
0n
0"!
b0 #!
bx '!
bx (!
bx M
bx O
bx P
bx S
bx V
1H
0^
b1110001 _
b1001110110100101010101011010110 `
bx f
0j
0p
0r
b0 t
b0 u
bx $!
0%!
0&!
b10000000000 !
b1000000000000 "
b1111000000000000000000000000 #
b10001 $
b10101010101 %
b101010101 &
b101010101 '
b0 (
b1 )
b10 *
b100 +
b1000 ,
b10000 -
b100000 .
b1000000 /
b10000000 0
b100000000 1
b1000000000 2
b10000000000000 3
b100000000000000 4
b1000000000000000 5
b10000000000000000 6
b100000000000000000 7
b100000000000000001 8
b100000000000000010 9
b100000000000000011 :
b100000000000000100 ;
b100000000000000101 <
b100000000000000110 =
b100000000000000110 >
b100000000000000111 ?
b100000000000001000 @
b100000000000001000 A
b100110000010001110110110110 B
b1 C
b1111000 D
b1111000 E
b1110111111 F
b11100000111111111 G
b0 Y
b0 b
b0 c
b0 d
b0 e
b0 m
b0 K
b0 L
b0 N
b0 R
b0 T
b0 U
b1 W
b0 X
b1101001011000001111100000011110 I
b101110 Z
b111 [
b10010010101101100010010111001111 \
b1101001011000001111100000011110 ]
b10011001101100110011001011011001 a
b0 g
b0 h
b0 i
b0 k
b111110100 s
b0 v
b0 w
b11001000 x
b11011001 y
b0 z
b0 {
b0 |
b0 }
b0 ~
b0 !!
b100100 )!
b100100 *!
b11111111111111111111111111111111 J
bx Q
bx o
bx q
$end
#20
b100101 *!
b10010010101101100010010111010000 a
b100101 )!
#40
b100110 *!
b10010010101101100010010111010010 a
b100110 )!
#60
b100111 *!
b10010010101101100010010111010101 a
b100111 )!
#80
b101000 *!
b10010010101101100010010111011001 a
b101000 )!
#100
b101001 *!
b10010010101101100010010111011110 a
b101001 )!
#120
b101010 *!
b10010010101101100010010111100100 a
b101010 )!
#140
b101011 *!
b10010010101101100010010111101011 a
b101011 )!
#160
b101100 *!
b10010010101101100010010111110011 a
b101100 )!
#180
b101101 *!
b10010010101101100010010111111100 a
b101101 )!
#200
b101110 *!
b10010010101101100010011000000110 a
b101110 )!
#220
b101111 *!
b10010010101101100010011000010001 a
b101111 )!
#240
b110000 *!
b10010010101101100010011000011101 a
b110000 )!
#260
b110001 *!
b10010010101101100010011000101010 a
b110001 )!
#280
b110010 *!
b10010010101101100010011000111000 a
b110010 )!
#300
b110011 *!
b10010010101101100010011001000111 a
b110011 )!
#320
b110100 *!
b10010010101101100010011001010111 a
b110100 )!
#340
b110101 *!
b10010010101101100010011001101000 a
b110101 )!
#360
b110110 *!
b10010010101101100010011001111010 a
b110110 )!
#380
b110111 *!
b10010010101101100010011010001101 a
b110111 )!
#400
b111000 *!
b10010010101101100010011010100001 a
b111000 )!
#420
b111001 *!
b10010010101101100010011010110110 a
b111001 )!
#440
b111010 *!
b10010010101101100010011011001100 a
b111010 )!
#460
b111011 *!
b10010010101101100010011011100011 a
b111011 )!
#480
b111100 *!
b10010010101101100010011011111011 a
b111100 )!
#500
b111101 *!
b10010010101101100010011100010100 a
b111101 )!
#520
b111110 *!
b10010010101101100010011100101110 a
b111110 )!
#540
b111111 *!
b10010010101101100010011101001001 a
b111111 )!
#560
b1000000 *!
b10010010101101100010011101100101 a
b1000000 )!
#580
b1000001 *!
b10010010101101100010011110000010 a
b1000001 )!
#600
b1000010 *!
b10010010101101100010011110100000 a
b1000010 )!
#620
b1000011 *!
b10010010101101100010011110111111 a
b1000011 )!
#640
b1000100 *!
b10010010101101100010011111011111 a
b1000100 )!
#660
b1000101 *!
b10010010101101100010100000000000 a
b1000101 )!
#680
b1000110 *!
b10010010101101100010100000100010 a
b1000110 )!
#700
b1000111 *!
b10010010101101100010100001000101 a
b1000111 )!
#720
b1001000 *!
b10010010101101100010100001101001 a
b1001000 )!
#740
b1001001 *!
b10010010101101100010100010001110 a
b1001001 )!
#760
b1001010 *!
b10010010101101100010100010110100 a
b1001010 )!
#780
b1001011 *!
b10010010101101100010100011011011 a
b1001011 )!
#800
b1001100 *!
b1001100 )!
#900
b1001101 *!
b1001110 *!
b1001101 )!
b1001110 )!
b1001111 *!
b1010000 *!
b1001111 )!
b1010000 )!
b10011001101100110011001011101011 a
b1000111001100100011101110001011 a
b10101101010011010001101100000000 a
b11000001001101010100011010000000 a
b10011110110110000101101000000100 a
b10111000110010100011100001000 a
b1001101111110000100110001111100 a
b111100110101011110010010000011 a
b11100011011001110100011001101100 a
b11100111111101001010000100110000 a
b110101010010111010101000000011 a
b10001111101101000100011001100100 a
b1111010101000000111101011010101 a
b10001001000111011111001111101000 a
b1010101110011011000101100010110 a
b11001010110100010101011101100011 a
b100011001100110100100000111101 a
b11001101111010101111000110011010 a
b110011001101000001110011001001 a
b111011011010010101100001101000 a
b101000010111010010011001100110 a
b10001100101100011011100000010110 a
b110100010110010000001010111010 a
b111000011000110011100110101111 a
b11011100000111001000010000111110 a
b10011001101100110011001011111110 a
b1000111001100100011101110011110 a
b10101101010011010001101100010011 a
b11000001001101010100011010010011 a
b10011110110110000101101000010111 a
b10111000110010100011100011011 a
b1001101111110000100110010001111 a
b111100110101011110010010010110 a
b11100011011001110100011001111111 a
b11100111111101001010000101000011 a
b110101010010111010101000010110 a
b10001111101101000100011001110111 a
b1111010101000000111101011101000 a
b10001001000111011111001111111011 a
b1010101110011011000101100101001 a
b11001010110100010101011101110110 a
b100011001100110100100001010000 a
b11001101111010101111000110101101 a
b110011001101000001110011011100 a
b111011011010010101100001111011 a
b101000010111010010011001111001 a
b10001100101100011011100000101001 a
b110100010110010000001011001101 a
b111000011000110011100111000010 a
b11011100000111001000010001010001 a
b10011001101100110011001100010010 a
b1000111001100100011101110110010 a
b10101101010011010001101100100111 a
b11000001001101010100011010100111 a
b10011110110110000101101000101011 a
b10111000110010100011100101111 a
b1001101111110000100110010100011 a
b111100110101011110010010101010 a
b11100011011001110100011010010011 a
b11100111111101001010000101010111 a
b110101010010111010101000101010 a
b10001111101101000100011010001011 a
b1111010101000000111101011111100 a
b10001001000111011111010000001111 a
b1010101110011011000101100111101 a
b11001010110100010101011110001010 a
b100011001100110100100001100100 a
b11001101111010101111000111000001 a
b110011001101000001110011110000 a
b111011011010010101100010001111 a
b101000010111010010011010001101 a
b10001100101100011011100000111101 a
b110100010110010000001011100001 a
b111000011000110011100111010110 a
b11011100000111001000010001100101 a
b11011100000111001000010001111010 a
b111000011000110011100111101011 a
b110100010110010000001011110110 a
b111011011010010101100010100100 a
b10101101010011010001101100111100 a
b10011001101100110011001100100111 a
b1000111001100100011101111000111 a
b10011110110110000101101001000000 a
b11000001001101010100011010111100 a
b110011001101000001110100000101 a
b11100111111101001010000101101100 a
b10111000110010100011101000100 a
b1001101111110000100110010111000 a
b111100110101011110010010111111 a
b11100011011001110100011010101000 a
b110101010010111010101000111111 a
b10001111101101000100011010100000 a
b11001101111010101111000111010110 a
b1111010101000000111101100010001 a
b10001001000111011111010000100100 a
b1010101110011011000101101010010 a
b11001010110100010101011110011111 a
b100011001100110100100001111001 a
b10001100101100011011100001010010 a
b101000010111010010011010100010 a
